%YAML 1.1
%TAG !u! tag:unity3d.com,2011:
--- !u!1 &3431583096498794312
GameObject:
  m_ObjectHideFlags: 0
  m_CorrespondingSourceObject: {fileID: 0}
  m_PrefabInstance: {fileID: 0}
  m_PrefabAsset: {fileID: 0}
  serializedVersion: 6
  m_Component:
  - component: {fileID: 3431583096498794319}
  - component: {fileID: 3431583096498794318}
  - component: {fileID: 3431583096498794317}
  m_Layer: 0
  m_Name: Barrel
  m_TagString: Untagged
  m_Icon: {fileID: 0}
  m_NavMeshLayer: 0
  m_StaticEditorFlags: 0
  m_IsActive: 1
--- !u!4 &3431583096498794319
Transform:
  m_ObjectHideFlags: 0
  m_CorrespondingSourceObject: {fileID: 0}
  m_PrefabInstance: {fileID: 0}
  m_PrefabAsset: {fileID: 0}
  m_GameObject: {fileID: 3431583096498794312}
  m_LocalRotation: {x: 0, y: 0, z: 0, w: 1}
  m_LocalPosition: {x: 13.87, y: 0, z: 22.13}
  m_LocalScale: {x: 1, y: 1, z: 1}
  m_Children:
  - {fileID: 3431583096557316856}
  - {fileID: 7781851736726780699}
  m_Father: {fileID: 0}
  m_RootOrder: 0
  m_LocalEulerAnglesHint: {x: 0, y: 0, z: 0}
--- !u!114 &3431583096498794318
MonoBehaviour:
  m_ObjectHideFlags: 0
  m_CorrespondingSourceObject: {fileID: 0}
  m_PrefabInstance: {fileID: 0}
  m_PrefabAsset: {fileID: 0}
  m_GameObject: {fileID: 3431583096498794312}
  m_Enabled: 1
  m_EditorHideFlags: 0
  m_Script: {fileID: 1384774831, guid: e743331561ef77147ae48cda9bcb8209, type: 3}
  m_Name: 
  m_EditorClassIdentifier: 
  fsm:
    dataVersion: 2
    usedInTemplate: {fileID: 0}
    name: Health
    startState: CheckIfDead
    states:
    - name: CheckIfDead
      description: 
      colorIndex: 0
      position:
        serializedVersion: 2
        x: 50
        y: 196
        width: 114
        height: 48
      isBreakpoint: 0
      isSequence: 0
      hideUnused: 0
      transitions:
      - fsmEvent:
          name: Hit
          isSystemEvent: 0
          isGlobal: 1
        toState: Damage
        linkStyle: 0
        linkConstraint: 0
        colorIndex: 0
      - fsmEvent:
          name: Death
          isSystemEvent: 0
          isGlobal: 0
        toState: Explode
        linkStyle: 0
        linkConstraint: 0
        colorIndex: 0
      actionData:
        actionNames:
        - HutongGames.PlayMaker.Actions.FloatCompare
        customNames:
        - 
        actionEnabled: 01
        actionIsOpen: 01
        actionStartIndex: 00000000
        actionHashCodes: 1bcdca04
        unityObjectParams: []
        fsmGameObjectParams: []
        fsmOwnerDefaultParams: []
        animationCurveParams: []
        functionCallParams: []
        fsmTemplateControlParams: []
        fsmEventTargetParams: []
        fsmPropertyParams: []
        layoutOptionParams: []
        fsmStringParams: []
        fsmObjectParams: []
        fsmVarParams: []
        fsmArrayParams: []
        fsmEnumParams: []
        fsmFloatParams:
        - useVariable: 1
          name: Health
          tooltip: 
          showInInspector: 0
          networkSync: 0
          value: 100
        - useVariable: 0
          name: 
          tooltip: 
          showInInspector: 0
          networkSync: 0
          value: 0
        - useVariable: 0
          name: 
          tooltip: 
          showInInspector: 0
          networkSync: 0
          value: 0
        fsmIntParams: []
        fsmBoolParams: []
        fsmVector2Params: []
        fsmVector3Params: []
        fsmColorParams: []
        fsmRectParams: []
        fsmQuaternionParams: []
        stringParams:
        - Death
        - Death
        - 
        byteData: 00
        arrayParamSizes: 
        arrayParamTypes: []
        customTypeSizes: 
        customTypeNames: []
        paramDataType: 0f0000000f0000000f00000017000000170000001700000001000000
        paramName:
        - float1
        - float2
        - tolerance
        - equal
        - lessThan
        - greaterThan
        - everyFrame
        paramDataPos: 00000000010000000200000000000000010000000200000000000000
        paramByteDataSize: 00000000000000000000000000000000000000000000000001000000
    - name: Damage
      description: 
      colorIndex: 0
      position:
        serializedVersion: 2
        x: 301
        y: 115.75
        width: 100
        height: 32
      isBreakpoint: 0
      isSequence: 0
      hideUnused: 0
      transitions:
      - fsmEvent:
          name: FINISHED
          isSystemEvent: 1
          isGlobal: 0
        toState: CheckIfDead
        linkStyle: 0
        linkConstraint: 0
        colorIndex: 0
      actionData:
        actionNames:
        - HutongGames.PlayMaker.Actions.FloatSubtract
        customNames:
        - 
        actionEnabled: 01
        actionIsOpen: 01
        actionStartIndex: 00000000
        actionHashCodes: 2a6e8a00
        unityObjectParams: []
        fsmGameObjectParams: []
        fsmOwnerDefaultParams: []
        animationCurveParams: []
        functionCallParams: []
        fsmTemplateControlParams: []
        fsmEventTargetParams: []
        fsmPropertyParams: []
        layoutOptionParams: []
        fsmStringParams: []
        fsmObjectParams: []
        fsmVarParams: []
        fsmArrayParams: []
        fsmEnumParams: []
        fsmFloatParams:
        - useVariable: 1
          name: Health
          tooltip: 
          showInInspector: 1
          networkSync: 0
          value: 10
        - useVariable: 0
          name: 
          tooltip: 
          showInInspector: 0
          networkSync: 0
          value: 1
        fsmIntParams: []
        fsmBoolParams: []
        fsmVector2Params: []
        fsmVector3Params: []
        fsmColorParams: []
        fsmRectParams: []
        fsmQuaternionParams: []
        stringParams: []
        byteData: 0000
        arrayParamSizes: 
        arrayParamTypes: []
        customTypeSizes: 
        customTypeNames: []
        paramDataType: 0f0000000f0000000100000001000000
        paramName:
        - floatVariable
        - subtract
        - everyFrame
        - perSecond
        paramDataPos: 00000000010000000000000001000000
        paramByteDataSize: 00000000000000000100000001000000
    - name: Explode
      description: 
      colorIndex: 0
      position:
        serializedVersion: 2
        x: 273
        y: 255.07031
        width: 100
        height: 32
      isBreakpoint: 0
      isSequence: 0
      hideUnused: 0
      transitions:
      - fsmEvent:
          name: FINISHED
          isSystemEvent: 1
          isGlobal: 0
        toState: Death
        linkStyle: 0
        linkConstraint: 0
        colorIndex: 0
      actionData:
        actionNames:
        - HutongGames.PlayMaker.Actions.CreateObject
        customNames:
        - 
        actionEnabled: 01
        actionIsOpen: 01
        actionStartIndex: 00000000
        actionHashCodes: bf83c900
        unityObjectParams: []
        fsmGameObjectParams:
        - useVariable: 0
          name: 
          tooltip: 
          showInInspector: 0
          networkSync: 0
          value: {fileID: 8112071961050731708, guid: 32d41427ca86fd941b0a238be7eec286,
            type: 3}
        - useVariable: 0
          name: 
          tooltip: 
          showInInspector: 0
          networkSync: 0
          value: {fileID: 8337239795291376854}
        - useVariable: 1
          name: 
          tooltip: 
          showInInspector: 0
          networkSync: 0
          value: {fileID: 0}
        fsmOwnerDefaultParams: []
        animationCurveParams: []
        functionCallParams: []
        fsmTemplateControlParams: []
        fsmEventTargetParams: []
        fsmPropertyParams: []
        layoutOptionParams: []
        fsmStringParams: []
        fsmObjectParams: []
        fsmVarParams: []
        fsmArrayParams: []
        fsmEnumParams: []
        fsmFloatParams: []
        fsmIntParams: []
        fsmBoolParams: []
        fsmVector2Params: []
        fsmVector3Params:
        - useVariable: 1
          name: 
          tooltip: 
          showInInspector: 0
          networkSync: 0
          value: {x: 0, y: 0, z: 0}
        - useVariable: 1
          name: 
          tooltip: 
          showInInspector: 0
          networkSync: 0
          value: {x: 0, y: 0, z: 0}
        fsmColorParams: []
        fsmRectParams: []
        fsmQuaternionParams: []
        stringParams: []
        byteData: 
        arrayParamSizes: 
        arrayParamTypes: []
        customTypeSizes: 
        customTypeNames: []
        paramDataType: 13000000130000001c0000001c00000013000000
        paramName:
        - gameObject
        - spawnPoint
        - position
        - rotation
        - storeObject
        paramDataPos: 0000000001000000000000000100000002000000
        paramByteDataSize: 0000000000000000000000000000000000000000
    - name: Death
      description: 
      colorIndex: 0
      position:
        serializedVersion: 2
        x: 459
        y: 269.01562
        width: 100
        height: 16
      isBreakpoint: 0
      isSequence: 0
      hideUnused: 0
      transitions: []
      actionData:
        actionNames:
        - HutongGames.PlayMaker.Actions.DestroySelf
        customNames:
        - 
        actionEnabled: 01
        actionIsOpen: 01
        actionStartIndex: 00000000
        actionHashCodes: 62f95203
        unityObjectParams: []
        fsmGameObjectParams: []
        fsmOwnerDefaultParams: []
        animationCurveParams: []
        functionCallParams: []
        fsmTemplateControlParams: []
        fsmEventTargetParams: []
        fsmPropertyParams: []
        layoutOptionParams: []
        fsmStringParams: []
        fsmObjectParams: []
        fsmVarParams: []
        fsmArrayParams: []
        fsmEnumParams: []
        fsmFloatParams: []
        fsmIntParams: []
        fsmBoolParams:
        - useVariable: 0
          name: 
          tooltip: 
          showInInspector: 0
          networkSync: 0
          value: 0
        fsmVector2Params: []
        fsmVector3Params: []
        fsmColorParams: []
        fsmRectParams: []
        fsmQuaternionParams: []
        stringParams: []
        byteData: 
        arrayParamSizes: 
        arrayParamTypes: []
        customTypeSizes: 
        customTypeNames: []
        paramDataType: 11000000
        paramName:
        - detachChildren
        paramDataPos: 00000000
        paramByteDataSize: 00000000
    events:
    - name: FINISHED
      isSystemEvent: 1
      isGlobal: 0
    - name: Death
      isSystemEvent: 0
      isGlobal: 0
    - name: Hit
      isSystemEvent: 0
      isGlobal: 1
    - name: PlayerDamaged
      isSystemEvent: 0
      isGlobal: 1
    globalTransitions: []
    variables:
      floatVariables:
      - useVariable: 1
        name: Health
        tooltip: 
        showInInspector: 1
        networkSync: 0
        value: 1
      intVariables: []
      boolVariables: []
      stringVariables: []
      vector2Variables: []
      vector3Variables: []
      colorVariables: []
      rectVariables: []
      quaternionVariables: []
      gameObjectVariables: []
      objectVariables: []
      materialVariables: []
      textureVariables: []
      arrayVariables: []
      enumVariables: []
      categories:
      - 
      variableCategoryIDs: 00000000
    description: 
    docUrl: 
    showStateLabel: 0
    maxLoopCount: 0
    watermark: 
    password: 
    locked: 0
    manualUpdate: 0
    keepDelayedEventsOnStateExit: 0
    preprocessed: 0
    ExposedEvents: []
    RestartOnEnable: 1
    EnableDebugFlow: 0
    EnableBreakpoints: 1
    editorFlags: 3
    activeStateName: 
    mouseEvents: 0
    handleLevelLoaded: 0
    handleTriggerEnter2D: 0
    handleTriggerExit2D: 0
    handleTriggerStay2D: 0
    handleCollisionEnter2D: 0
    handleCollisionExit2D: 0
    handleCollisionStay2D: 0
    handleTriggerEnter: 0
    handleTriggerExit: 0
    handleTriggerStay: 0
    handleCollisionEnter: 0
    handleCollisionExit: 0
    handleCollisionStay: 0
    handleParticleCollision: 0
    handleControllerColliderHit: 0
    handleJointBreak: 0
    handleJointBreak2D: 0
    handleOnGUI: 0
    handleFixedUpdate: 0
    handleLateUpdate: 0
    handleApplicationEvents: 0
    handleUiEvents: 0
    handleLegacyNetworking: 0
    handleAnimatorMove: 0
    handleAnimatorIK: 0
  fsmTemplate: {fileID: 0}
  eventHandlerComponentsAdded: 0
--- !u!65 &3431583096498794317
BoxCollider:
  m_ObjectHideFlags: 0
  m_CorrespondingSourceObject: {fileID: 0}
  m_PrefabInstance: {fileID: 0}
  m_PrefabAsset: {fileID: 0}
  m_GameObject: {fileID: 3431583096498794312}
  m_Material: {fileID: 0}
  m_IsTrigger: 0
  m_Enabled: 1
  serializedVersion: 2
  m_Size: {x: 1, y: 2, z: 1}
  m_Center: {x: 0, y: 1, z: 0}
--- !u!1 &3431583096557316853
GameObject:
  m_ObjectHideFlags: 0
  m_CorrespondingSourceObject: {fileID: 0}
  m_PrefabInstance: {fileID: 0}
  m_PrefabAsset: {fileID: 0}
  serializedVersion: 6
  m_Component:
  - component: {fileID: 3431583096557316856}
  - component: {fileID: 3431583096557316857}
  - component: {fileID: 3431583096557316858}
  - component: {fileID: 3431583096557316859}
  m_Layer: 0
  m_Name: M_Body
  m_TagString: Untagged
  m_Icon: {fileID: 0}
  m_NavMeshLayer: 0
  m_StaticEditorFlags: 0
  m_IsActive: 1
--- !u!4 &3431583096557316856
Transform:
  m_ObjectHideFlags: 0
  m_CorrespondingSourceObject: {fileID: 0}
  m_PrefabInstance: {fileID: 0}
  m_PrefabAsset: {fileID: 0}
  m_GameObject: {fileID: 3431583096557316853}
  m_LocalRotation: {x: -0, y: -0, z: -0, w: 1}
  m_LocalPosition: {x: 0, y: 1, z: 0}
  m_LocalScale: {x: 1, y: 1, z: 1}
  m_Children: []
  m_Father: {fileID: 3431583096498794319}
  m_RootOrder: 0
  m_LocalEulerAnglesHint: {x: 0, y: 0, z: 0}
--- !u!33 &3431583096557316857
MeshFilter:
  m_ObjectHideFlags: 0
  m_CorrespondingSourceObject: {fileID: 0}
  m_PrefabInstance: {fileID: 0}
  m_PrefabAsset: {fileID: 0}
  m_GameObject: {fileID: 3431583096557316853}
  m_Mesh: {fileID: 0}
--- !u!23 &3431583096557316858
MeshRenderer:
  m_ObjectHideFlags: 0
  m_CorrespondingSourceObject: {fileID: 0}
  m_PrefabInstance: {fileID: 0}
  m_PrefabAsset: {fileID: 0}
  m_GameObject: {fileID: 3431583096557316853}
  m_Enabled: 1
  m_CastShadows: 1
  m_ReceiveShadows: 1
  m_DynamicOccludee: 1
  m_MotionVectors: 1
  m_LightProbeUsage: 1
  m_ReflectionProbeUsage: 1
  m_RenderingLayerMask: 1
  m_RendererPriority: 0
  m_Materials:
  - {fileID: 2100000, guid: c22777d6e868e4f2fb421913386b154e, type: 2}
  m_StaticBatchInfo:
    firstSubMesh: 0
    subMeshCount: 0
  m_StaticBatchRoot: {fileID: 0}
  m_ProbeAnchor: {fileID: 0}
  m_LightProbeVolumeOverride: {fileID: 0}
  m_ScaleInLightmap: 1
  m_ReceiveGI: 1
  m_PreserveUVs: 0
  m_IgnoreNormalsForChartDetection: 0
  m_ImportantGI: 0
  m_StitchLightmapSeams: 1
  m_SelectedEditorRenderState: 2
  m_MinimumChartSize: 4
  m_AutoUVMaxDistance: 0.5
  m_AutoUVMaxAngle: 89
  m_LightmapParameters: {fileID: 0}
  m_SortingLayerID: 0
  m_SortingLayer: 0
  m_SortingOrder: 0
--- !u!114 &3431583096557316859
MonoBehaviour:
  m_ObjectHideFlags: 0
  m_CorrespondingSourceObject: {fileID: 0}
  m_PrefabInstance: {fileID: 0}
  m_PrefabAsset: {fileID: 0}
  m_GameObject: {fileID: 3431583096557316853}
  m_Enabled: 1
  m_EditorHideFlags: 0
  m_Script: {fileID: 11500000, guid: 8233d90336aea43098adf6dbabd606a2, type: 3}
  m_Name: 
  m_EditorClassIdentifier: 
  m_MeshFormatVersion: 1
  m_Faces:
  - m_Indexes: 000000000100000002000000010000000300000002000000
    m_SmoothingGroup: 1
    m_Uv:
      m_UseWorldSpace: 0
      m_FlipU: 0
      m_FlipV: 0
      m_SwapUV: 0
      m_Fill: 1
      m_Scale: {x: 1, y: 1}
      m_Offset: {x: 0, y: 0}
      m_Rotation: 0
      m_Anchor: 9
    m_Material: {fileID: 0}
    m_SubmeshIndex: 0
    m_ManualUV: 0
    elementGroup: -1
    m_TextureGroup: -1
  - m_Indexes: 040000000500000006000000050000000700000006000000
    m_SmoothingGroup: 1
    m_Uv:
      m_UseWorldSpace: 0
      m_FlipU: 0
      m_FlipV: 0
      m_SwapUV: 0
      m_Fill: 1
      m_Scale: {x: 1, y: 1}
      m_Offset: {x: 0, y: 0}
      m_Rotation: 0
      m_Anchor: 9
    m_Material: {fileID: 0}
    m_SubmeshIndex: 0
    m_ManualUV: 0
    elementGroup: -1
    m_TextureGroup: -1
  - m_Indexes: 08000000090000000a000000090000000b0000000a000000
    m_SmoothingGroup: 1
    m_Uv:
      m_UseWorldSpace: 0
      m_FlipU: 0
      m_FlipV: 0
      m_SwapUV: 0
      m_Fill: 1
      m_Scale: {x: 1, y: 1}
      m_Offset: {x: 0, y: 0}
      m_Rotation: 0
      m_Anchor: 9
    m_Material: {fileID: 0}
    m_SubmeshIndex: 0
    m_ManualUV: 0
    elementGroup: -1
    m_TextureGroup: -1
  - m_Indexes: 0c0000000d0000000e0000000d0000000f0000000e000000
    m_SmoothingGroup: 1
    m_Uv:
      m_UseWorldSpace: 0
      m_FlipU: 0
      m_FlipV: 0
      m_SwapUV: 0
      m_Fill: 1
      m_Scale: {x: 1, y: 1}
      m_Offset: {x: 0, y: 0}
      m_Rotation: 0
      m_Anchor: 9
    m_Material: {fileID: 0}
    m_SubmeshIndex: 0
    m_ManualUV: 0
    elementGroup: -1
    m_TextureGroup: -1
  - m_Indexes: 100000001100000012000000110000001300000012000000
    m_SmoothingGroup: 1
    m_Uv:
      m_UseWorldSpace: 0
      m_FlipU: 0
      m_FlipV: 0
      m_SwapUV: 0
      m_Fill: 1
      m_Scale: {x: 1, y: 1}
      m_Offset: {x: 0, y: 0}
      m_Rotation: 0
      m_Anchor: 9
    m_Material: {fileID: 0}
    m_SubmeshIndex: 0
    m_ManualUV: 0
    elementGroup: -1
    m_TextureGroup: -1
  - m_Indexes: 140000001500000016000000150000001700000016000000
    m_SmoothingGroup: 1
    m_Uv:
      m_UseWorldSpace: 0
      m_FlipU: 0
      m_FlipV: 0
      m_SwapUV: 0
      m_Fill: 1
      m_Scale: {x: 1, y: 1}
      m_Offset: {x: 0, y: 0}
      m_Rotation: 0
      m_Anchor: 9
    m_Material: {fileID: 0}
    m_SubmeshIndex: 0
    m_ManualUV: 0
    elementGroup: -1
    m_TextureGroup: -1
  - m_Indexes: 18000000190000001a000000190000001b0000001a000000
    m_SmoothingGroup: 1
    m_Uv:
      m_UseWorldSpace: 0
      m_FlipU: 0
      m_FlipV: 0
      m_SwapUV: 0
      m_Fill: 1
      m_Scale: {x: 1, y: 1}
      m_Offset: {x: 0, y: 0}
      m_Rotation: 0
      m_Anchor: 9
    m_Material: {fileID: 0}
    m_SubmeshIndex: 0
    m_ManualUV: 0
    elementGroup: -1
    m_TextureGroup: -1
  - m_Indexes: 1c0000001d0000001e0000001d0000001f0000001e000000
    m_SmoothingGroup: 1
    m_Uv:
      m_UseWorldSpace: 0
      m_FlipU: 0
      m_FlipV: 0
      m_SwapUV: 0
      m_Fill: 1
      m_Scale: {x: 1, y: 1}
      m_Offset: {x: 0, y: 0}
      m_Rotation: 0
      m_Anchor: 9
    m_Material: {fileID: 0}
    m_SubmeshIndex: 0
    m_ManualUV: 0
    elementGroup: -1
    m_TextureGroup: -1
  - m_Indexes: 220000002100000020000000
    m_SmoothingGroup: 0
    m_Uv:
      m_UseWorldSpace: 0
      m_FlipU: 0
      m_FlipV: 0
      m_SwapUV: 0
      m_Fill: 1
      m_Scale: {x: 1, y: 1}
      m_Offset: {x: 0, y: 0}
      m_Rotation: 0
      m_Anchor: 9
    m_Material: {fileID: 2100000, guid: c22777d6e868e4f2fb421913386b154e, type: 2}
    m_SubmeshIndex: 0
    m_ManualUV: 0
    elementGroup: 0
    m_TextureGroup: -1
  - m_Indexes: 280000002700000026000000
    m_SmoothingGroup: 0
    m_Uv:
      m_UseWorldSpace: 0
      m_FlipU: 0
      m_FlipV: 0
      m_SwapUV: 0
      m_Fill: 1
      m_Scale: {x: 1, y: 1}
      m_Offset: {x: 0, y: 0}
      m_Rotation: 0
      m_Anchor: 9
    m_Material: {fileID: 2100000, guid: c22777d6e868e4f2fb421913386b154e, type: 2}
    m_SubmeshIndex: 0
    m_ManualUV: 0
    elementGroup: 0
    m_TextureGroup: -1
  - m_Indexes: 2e0000002d0000002c000000
    m_SmoothingGroup: 0
    m_Uv:
      m_UseWorldSpace: 0
      m_FlipU: 0
      m_FlipV: 0
      m_SwapUV: 0
      m_Fill: 1
      m_Scale: {x: 1, y: 1}
      m_Offset: {x: 0, y: 0}
      m_Rotation: 0
      m_Anchor: 9
    m_Material: {fileID: 2100000, guid: c22777d6e868e4f2fb421913386b154e, type: 2}
    m_SubmeshIndex: 0
    m_ManualUV: 0
    elementGroup: 0
    m_TextureGroup: -1
  - m_Indexes: 340000003300000032000000
    m_SmoothingGroup: 0
    m_Uv:
      m_UseWorldSpace: 0
      m_FlipU: 0
      m_FlipV: 0
      m_SwapUV: 0
      m_Fill: 1
      m_Scale: {x: 1, y: 1}
      m_Offset: {x: 0, y: 0}
      m_Rotation: 0
      m_Anchor: 9
    m_Material: {fileID: 2100000, guid: c22777d6e868e4f2fb421913386b154e, type: 2}
    m_SubmeshIndex: 0
    m_ManualUV: 0
    elementGroup: 0
    m_TextureGroup: -1
  - m_Indexes: 3a0000003900000038000000
    m_SmoothingGroup: 0
    m_Uv:
      m_UseWorldSpace: 0
      m_FlipU: 0
      m_FlipV: 0
      m_SwapUV: 0
      m_Fill: 1
      m_Scale: {x: 1, y: 1}
      m_Offset: {x: 0, y: 0}
      m_Rotation: 0
      m_Anchor: 9
    m_Material: {fileID: 2100000, guid: c22777d6e868e4f2fb421913386b154e, type: 2}
    m_SubmeshIndex: 0
    m_ManualUV: 0
    elementGroup: 0
    m_TextureGroup: -1
  - m_Indexes: 400000003f0000003e000000
    m_SmoothingGroup: 0
    m_Uv:
      m_UseWorldSpace: 0
      m_FlipU: 0
      m_FlipV: 0
      m_SwapUV: 0
      m_Fill: 1
      m_Scale: {x: 1, y: 1}
      m_Offset: {x: 0, y: 0}
      m_Rotation: 0
      m_Anchor: 9
    m_Material: {fileID: 2100000, guid: c22777d6e868e4f2fb421913386b154e, type: 2}
    m_SubmeshIndex: 0
    m_ManualUV: 0
    elementGroup: 0
    m_TextureGroup: -1
  - m_Indexes: 460000004500000044000000
    m_SmoothingGroup: 0
    m_Uv:
      m_UseWorldSpace: 0
      m_FlipU: 0
      m_FlipV: 0
      m_SwapUV: 0
      m_Fill: 1
      m_Scale: {x: 1, y: 1}
      m_Offset: {x: 0, y: 0}
      m_Rotation: 0
      m_Anchor: 9
    m_Material: {fileID: 2100000, guid: c22777d6e868e4f2fb421913386b154e, type: 2}
    m_SubmeshIndex: 0
    m_ManualUV: 0
    elementGroup: 0
    m_TextureGroup: -1
  - m_Indexes: 4c0000004b0000004a000000
    m_SmoothingGroup: 0
    m_Uv:
      m_UseWorldSpace: 0
      m_FlipU: 0
      m_FlipV: 0
      m_SwapUV: 0
      m_Fill: 1
      m_Scale: {x: 1, y: 1}
      m_Offset: {x: 0, y: 0}
      m_Rotation: 0
      m_Anchor: 9
    m_Material: {fileID: 2100000, guid: c22777d6e868e4f2fb421913386b154e, type: 2}
    m_SubmeshIndex: 0
    m_ManualUV: 0
    elementGroup: 0
    m_TextureGroup: -1
  - m_Indexes: 230000002400000025000000
    m_SmoothingGroup: 0
    m_Uv:
      m_UseWorldSpace: 0
      m_FlipU: 0
      m_FlipV: 0
      m_SwapUV: 0
      m_Fill: 1
      m_Scale: {x: 1, y: 1}
      m_Offset: {x: 0, y: 0}
      m_Rotation: 0
      m_Anchor: 9
    m_Material: {fileID: 2100000, guid: c22777d6e868e4f2fb421913386b154e, type: 2}
    m_SubmeshIndex: 0
    m_ManualUV: 0
    elementGroup: 0
    m_TextureGroup: -1
  - m_Indexes: 290000002a0000002b000000
    m_SmoothingGroup: 0
    m_Uv:
      m_UseWorldSpace: 0
      m_FlipU: 0
      m_FlipV: 0
      m_SwapUV: 0
      m_Fill: 1
      m_Scale: {x: 1, y: 1}
      m_Offset: {x: 0, y: 0}
      m_Rotation: 0
      m_Anchor: 9
    m_Material: {fileID: 2100000, guid: c22777d6e868e4f2fb421913386b154e, type: 2}
    m_SubmeshIndex: 0
    m_ManualUV: 0
    elementGroup: 0
    m_TextureGroup: -1
  - m_Indexes: 2f0000003000000031000000
    m_SmoothingGroup: 0
    m_Uv:
      m_UseWorldSpace: 0
      m_FlipU: 0
      m_FlipV: 0
      m_SwapUV: 0
      m_Fill: 1
      m_Scale: {x: 1, y: 1}
      m_Offset: {x: 0, y: 0}
      m_Rotation: 0
      m_Anchor: 9
    m_Material: {fileID: 2100000, guid: c22777d6e868e4f2fb421913386b154e, type: 2}
    m_SubmeshIndex: 0
    m_ManualUV: 0
    elementGroup: 0
    m_TextureGroup: -1
  - m_Indexes: 350000003600000037000000
    m_SmoothingGroup: 0
    m_Uv:
      m_UseWorldSpace: 0
      m_FlipU: 0
      m_FlipV: 0
      m_SwapUV: 0
      m_Fill: 1
      m_Scale: {x: 1, y: 1}
      m_Offset: {x: 0, y: 0}
      m_Rotation: 0
      m_Anchor: 9
    m_Material: {fileID: 2100000, guid: c22777d6e868e4f2fb421913386b154e, type: 2}
    m_SubmeshIndex: 0
    m_ManualUV: 0
    elementGroup: 0
    m_TextureGroup: -1
  - m_Indexes: 3b0000003c0000003d000000
    m_SmoothingGroup: 0
    m_Uv:
      m_UseWorldSpace: 0
      m_FlipU: 0
      m_FlipV: 0
      m_SwapUV: 0
      m_Fill: 1
      m_Scale: {x: 1, y: 1}
      m_Offset: {x: 0, y: 0}
      m_Rotation: 0
      m_Anchor: 9
    m_Material: {fileID: 2100000, guid: c22777d6e868e4f2fb421913386b154e, type: 2}
    m_SubmeshIndex: 0
    m_ManualUV: 0
    elementGroup: 0
    m_TextureGroup: -1
  - m_Indexes: 410000004200000043000000
    m_SmoothingGroup: 0
    m_Uv:
      m_UseWorldSpace: 0
      m_FlipU: 0
      m_FlipV: 0
      m_SwapUV: 0
      m_Fill: 1
      m_Scale: {x: 1, y: 1}
      m_Offset: {x: 0, y: 0}
      m_Rotation: 0
      m_Anchor: 9
    m_Material: {fileID: 2100000, guid: c22777d6e868e4f2fb421913386b154e, type: 2}
    m_SubmeshIndex: 0
    m_ManualUV: 0
    elementGroup: 0
    m_TextureGroup: -1
  - m_Indexes: 470000004800000049000000
    m_SmoothingGroup: 0
    m_Uv:
      m_UseWorldSpace: 0
      m_FlipU: 0
      m_FlipV: 0
      m_SwapUV: 0
      m_Fill: 1
      m_Scale: {x: 1, y: 1}
      m_Offset: {x: 0, y: 0}
      m_Rotation: 0
      m_Anchor: 9
    m_Material: {fileID: 2100000, guid: c22777d6e868e4f2fb421913386b154e, type: 2}
    m_SubmeshIndex: 0
    m_ManualUV: 0
    elementGroup: 0
    m_TextureGroup: -1
  - m_Indexes: 4d0000004e0000004f000000
    m_SmoothingGroup: 0
    m_Uv:
      m_UseWorldSpace: 0
      m_FlipU: 0
      m_FlipV: 0
      m_SwapUV: 0
      m_Fill: 1
      m_Scale: {x: 1, y: 1}
      m_Offset: {x: 0, y: 0}
      m_Rotation: 0
      m_Anchor: 9
    m_Material: {fileID: 2100000, guid: c22777d6e868e4f2fb421913386b154e, type: 2}
    m_SubmeshIndex: 0
    m_ManualUV: 0
    elementGroup: 0
    m_TextureGroup: -1
  m_SharedVertices:
  - m_Vertices: 000000001e000000200000004c000000
  - m_Vertices: 010000001f000000230000004f000000
  - m_Vertices: 02000000040000002200000026000000
  - m_Vertices: 03000000050000002500000029000000
  - m_Vertices: 0600000008000000280000002c000000
  - m_Vertices: 07000000090000002b0000002f000000
  - m_Vertices: 0a0000000c0000002e00000032000000
  - m_Vertices: 0b0000000d0000003100000035000000
  - m_Vertices: 0e000000100000003400000038000000
  - m_Vertices: 0f00000011000000370000003b000000
  - m_Vertices: 12000000140000003a0000003e000000
  - m_Vertices: 13000000150000003d00000041000000
  - m_Vertices: 16000000180000004000000044000000
  - m_Vertices: 17000000190000004300000047000000
  - m_Vertices: 1a0000001c000000460000004a000000
  - m_Vertices: 1b0000001d000000490000004d000000
  - m_Vertices: 21000000270000002d00000033000000390000003f000000450000004b000000
  - m_Vertices: 240000002a00000030000000360000003c00000042000000480000004e000000
  m_SharedTextures: []
  m_Positions:
  - {x: 0.5, y: -1, z: 0}
  - {x: 0.5, y: 1, z: 0}
  - {x: 0.35355338, y: -1, z: 0.35355338}
  - {x: 0.35355338, y: 1, z: 0.35355338}
  - {x: 0.35355338, y: -1, z: 0.35355338}
  - {x: 0.35355338, y: 1, z: 0.35355338}
  - {x: 0, y: -1, z: 0.5}
  - {x: 0, y: 1, z: 0.5}
  - {x: 0, y: -1, z: 0.5}
  - {x: 0, y: 1, z: 0.5}
  - {x: -0.3535534, y: -1, z: 0.35355338}
  - {x: -0.3535534, y: 1, z: 0.35355338}
  - {x: -0.3535534, y: -1, z: 0.35355338}
  - {x: -0.3535534, y: 1, z: 0.35355338}
  - {x: -0.5, y: -1, z: -0.00000004371139}
  - {x: -0.5, y: 1, z: -0.00000004371139}
  - {x: -0.5, y: -1, z: -0.00000004371139}
  - {x: -0.5, y: 1, z: -0.00000004371139}
  - {x: -0.3535534, y: -1, z: -0.35355335}
  - {x: -0.3535534, y: 1, z: -0.35355335}
  - {x: -0.3535534, y: -1, z: -0.35355335}
  - {x: -0.3535534, y: 1, z: -0.35355335}
  - {x: 0, y: -1, z: -0.5}
  - {x: 0, y: 1, z: -0.5}
  - {x: 0, y: -1, z: -0.5}
  - {x: 0, y: 1, z: -0.5}
  - {x: 0.35355332, y: -1, z: -0.35355344}
  - {x: 0.35355332, y: 1, z: -0.35355344}
  - {x: 0.35355332, y: -1, z: -0.35355344}
  - {x: 0.35355332, y: 1, z: -0.35355344}
  - {x: 0.5, y: -1, z: 0}
  - {x: 0.5, y: 1, z: 0}
  - {x: 0.5, y: -1, z: 0}
  - {x: 0, y: -1, z: 0}
  - {x: 0.35355338, y: -1, z: 0.35355338}
  - {x: 0.5, y: 1, z: 0}
  - {x: 0, y: 1, z: 0}
  - {x: 0.35355338, y: 1, z: 0.35355338}
  - {x: 0.35355338, y: -1, z: 0.35355338}
  - {x: 0, y: -1, z: 0}
  - {x: 0, y: -1, z: 0.5}
  - {x: 0.35355338, y: 1, z: 0.35355338}
  - {x: 0, y: 1, z: 0}
  - {x: 0, y: 1, z: 0.5}
  - {x: 0, y: -1, z: 0.5}
  - {x: 0, y: -1, z: 0}
  - {x: -0.3535534, y: -1, z: 0.35355338}
  - {x: 0, y: 1, z: 0.5}
  - {x: 0, y: 1, z: 0}
  - {x: -0.3535534, y: 1, z: 0.35355338}
  - {x: -0.3535534, y: -1, z: 0.35355338}
  - {x: 0, y: -1, z: 0}
  - {x: -0.5, y: -1, z: -0.00000004371139}
  - {x: -0.3535534, y: 1, z: 0.35355338}
  - {x: 0, y: 1, z: 0}
  - {x: -0.5, y: 1, z: -0.00000004371139}
  - {x: -0.5, y: -1, z: -0.00000004371139}
  - {x: 0, y: -1, z: 0}
  - {x: -0.3535534, y: -1, z: -0.35355335}
  - {x: -0.5, y: 1, z: -0.00000004371139}
  - {x: 0, y: 1, z: 0}
  - {x: -0.3535534, y: 1, z: -0.35355335}
  - {x: -0.3535534, y: -1, z: -0.35355335}
  - {x: 0, y: -1, z: 0}
  - {x: 0, y: -1, z: -0.5}
  - {x: -0.3535534, y: 1, z: -0.35355335}
  - {x: 0, y: 1, z: 0}
  - {x: 0, y: 1, z: -0.5}
  - {x: 0, y: -1, z: -0.5}
  - {x: 0, y: -1, z: 0}
  - {x: 0.35355332, y: -1, z: -0.35355344}
  - {x: 0, y: 1, z: -0.5}
  - {x: 0, y: 1, z: 0}
  - {x: 0.35355332, y: 1, z: -0.35355344}
  - {x: 0.35355332, y: -1, z: -0.35355344}
  - {x: 0, y: -1, z: 0}
  - {x: 0.5, y: -1, z: 0}
  - {x: 0.35355332, y: 1, z: -0.35355344}
  - {x: 0, y: 1, z: 0}
  - {x: 0.5, y: 1, z: 0}
  m_Textures0:
  - {x: -0.19134173, y: -1}
  - {x: -0.19134173, y: 1}
  - {x: 0.1913417, y: -1}
  - {x: 0.1913417, y: 1}
  - {x: -0.1913417, y: -1}
  - {x: -0.1913417, y: 1}
  - {x: 0.19134173, y: -1}
  - {x: 0.19134173, y: 1}
  - {x: -0.19134171, y: -1}
  - {x: -0.19134171, y: 1}
  - {x: 0.19134176, y: -1}
  - {x: 0.19134176, y: 1}
  - {x: -0.19134174, y: -1}
  - {x: -0.19134174, y: 1}
  - {x: 0.19134171, y: -1}
  - {x: 0.19134171, y: 1}
  - {x: -0.19134167, y: -1}
  - {x: -0.19134167, y: 1}
  - {x: 0.19134167, y: -1}
  - {x: 0.19134167, y: 1}
  - {x: -0.19134171, y: -1}
  - {x: -0.19134171, y: 1}
  - {x: 0.19134173, y: -1}
  - {x: 0.19134173, y: 1}
  - {x: -0.1913417, y: -1}
  - {x: -0.1913417, y: 1}
  - {x: 0.19134165, y: -1}
  - {x: 0.19134165, y: 1}
  - {x: -0.19134174, y: -1}
  - {x: -0.19134174, y: 1}
  - {x: 0.19134177, y: -1}
  - {x: 0.19134177, y: 1}
  - {x: -0.5, y: 0}
  - {x: 0, y: 0}
  - {x: -0.35355338, y: 0.35355338}
  - {x: 0.5, y: 0}
  - {x: 0, y: 0}
  - {x: 0.35355338, y: 0.35355338}
  - {x: -0.35355338, y: 0.35355338}
  - {x: 0, y: 0}
  - {x: 0, y: 0.5}
  - {x: 0.35355338, y: 0.35355338}
  - {x: 0, y: 0}
  - {x: 0, y: 0.5}
  - {x: 0, y: 0.5}
  - {x: 0, y: 0}
  - {x: 0.3535534, y: 0.35355338}
  - {x: 0, y: 0.5}
  - {x: 0, y: 0}
  - {x: -0.3535534, y: 0.35355338}
  - {x: 0.3535534, y: 0.35355338}
  - {x: 0, y: 0}
  - {x: 0.5, y: -0.00000004371139}
  - {x: -0.3535534, y: 0.35355338}
  - {x: 0, y: 0}
  - {x: -0.5, y: -0.00000004371139}
  - {x: 0.5, y: -0.00000004371139}
  - {x: 0, y: 0}
  - {x: 0.3535534, y: -0.35355335}
  - {x: -0.5, y: -0.00000004371139}
  - {x: 0, y: 0}
  - {x: -0.3535534, y: -0.35355335}
  - {x: 0.3535534, y: -0.35355335}
  - {x: 0, y: 0}
  - {x: -0, y: -0.5}
  - {x: -0.3535534, y: -0.35355335}
  - {x: 0, y: 0}
  - {x: 0, y: -0.5}
  - {x: -0, y: -0.5}
  - {x: 0, y: 0}
  - {x: -0.35355332, y: -0.35355344}
  - {x: 0, y: -0.5}
  - {x: 0, y: 0}
  - {x: 0.35355332, y: -0.35355344}
  - {x: -0.35355332, y: -0.35355344}
  - {x: 0, y: 0}
  - {x: -0.5, y: 0}
  - {x: 0.35355332, y: -0.35355344}
  - {x: 0, y: 0}
  - {x: 0.5, y: 0}
  m_Textures2: []
  m_Textures3: []
  m_Tangents:
  - {x: 0.0000000645156, y: 0, z: 1, w: -1}
  - {x: 0.0000000645156, y: 0, z: 1, w: -1}
  - {x: -0.7071068, y: 0, z: 0.7071067, w: -1}
  - {x: -0.7071068, y: 0, z: 0.7071067, w: -1}
  - {x: -0.7071067, y: 0, z: 0.7071068, w: -1}
  - {x: -0.7071067, y: 0, z: 0.7071068, w: -1}
  - {x: -1, y: 0, z: 0, w: -1}
  - {x: -1, y: 0, z: 0, w: -1}
  - {x: -1, y: 0, z: 0.0000000322578, w: -1}
  - {x: -1, y: 0, z: 0.0000000322578, w: -1}
  - {x: -0.7071067, y: 0, z: -0.7071068, w: -1}
  - {x: -0.7071067, y: 0, z: -0.7071068, w: -1}
  - {x: -0.70710677, y: 0, z: -0.70710677, w: -1}
  - {x: -0.70710677, y: 0, z: -0.70710677, w: -1}
  - {x: 0.0000000645156, y: 0, z: -1, w: -1}
  - {x: 0.0000000645156, y: 0, z: -1, w: -1}
  - {x: 0.0000000645156, y: 0, z: -1, w: -1}
  - {x: 0.0000000645156, y: 0, z: -1, w: -1}
  - {x: 0.7071068, y: 0, z: -0.7071067, w: -1}
  - {x: 0.7071068, y: 0, z: -0.7071067, w: -1}
  - {x: 0.7071067, y: 0, z: -0.7071068, w: -1}
  - {x: 0.7071067, y: 0, z: -0.7071068, w: -1}
  - {x: 1, y: 0, z: -0.0000000322578, w: -1}
  - {x: 1, y: 0, z: -0.0000000322578, w: -1}
  - {x: 1, y: 0, z: -0.0000000322578, w: -1}
  - {x: 1, y: 0, z: -0.0000000322578, w: -1}
  - {x: 0.7071068, y: 0, z: 0.7071067, w: -1}
  - {x: 0.7071068, y: 0, z: 0.7071067, w: -1}
  - {x: 0.70710677, y: 0, z: 0.70710677, w: -1}
  - {x: 0.70710677, y: 0, z: 0.70710677, w: -1}
  - {x: 0.000000032257805, y: 0, z: 1, w: -1}
  - {x: 0.000000032257805, y: 0, z: 1, w: -1}
  - {x: -1, y: 0, z: 0, w: -1}
  - {x: -1, y: 0, z: 0, w: -1}
  - {x: -1, y: 0, z: 0, w: -1}
  - {x: 1, y: 0, z: 0, w: -1}
  - {x: 1, y: 0, z: 0, w: -1}
  - {x: 1, y: 0, z: 0, w: -1}
  - {x: -1, y: 0, z: 0, w: -1}
  - {x: -1, y: 0, z: 0, w: -1}
  - {x: -1, y: 0, z: 0, w: -1}
  - {x: 1, y: 0, z: 0, w: -1}
  - {x: 1, y: 0, z: 0, w: -1}
  - {x: 1, y: 0, z: 0, w: -1}
  - {x: -1, y: 0, z: 0, w: -1}
  - {x: -1, y: 0, z: 0, w: -1}
  - {x: -1, y: 0, z: 0, w: -1}
  - {x: 1, y: 0, z: 0, w: -1}
  - {x: 1, y: 0, z: 0, w: -1}
  - {x: 1, y: 0, z: 0, w: -1}
  - {x: -1, y: 0, z: 0, w: -1}
  - {x: -1, y: 0, z: 0, w: -1}
  - {x: -1, y: 0, z: 0, w: -1}
  - {x: 1, y: 0, z: 0, w: -1}
  - {x: 1, y: 0, z: 0, w: -1}
  - {x: 1, y: 0, z: 0, w: -1}
  - {x: -1, y: 0, z: 0, w: -1}
  - {x: -1, y: 0, z: 0, w: -1}
  - {x: -1, y: 0, z: 0, w: -1}
  - {x: 1, y: 0, z: 0, w: -1}
  - {x: 1, y: 0, z: 0, w: -1}
  - {x: 1, y: 0, z: 0, w: -1}
  - {x: -1, y: 0, z: 0, w: -1}
  - {x: -1, y: 0, z: 0, w: -1}
  - {x: -1, y: 0, z: 0, w: -1}
  - {x: 1, y: 0, z: 0, w: -1}
  - {x: 1, y: 0, z: 0, w: -1}
  - {x: 1, y: 0, z: 0, w: -1}
  - {x: -1, y: 0, z: 0, w: -1}
  - {x: -1, y: 0, z: 0, w: -1}
  - {x: -1, y: 0, z: 0, w: -1}
  - {x: 1, y: 0, z: 0, w: -1}
  - {x: 1, y: 0, z: 0, w: -1}
  - {x: 1, y: 0, z: 0, w: -1}
  - {x: -1, y: 0, z: 0, w: -1}
  - {x: -1, y: 0, z: 0, w: -1}
  - {x: -1, y: 0, z: 0, w: -1}
  - {x: 1, y: 0, z: 0, w: -1}
  - {x: 1, y: 0, z: 0, w: -1}
  - {x: 1, y: 0, z: 0, w: -1}
  m_Colors:
  - {r: 0.941, g: 0.071, b: 0.745, a: 1}
  - {r: 0.941, g: 0.071, b: 0.745, a: 1}
  - {r: 0.941, g: 0.071, b: 0.745, a: 1}
  - {r: 0.941, g: 0.071, b: 0.745, a: 1}
  - {r: 0.941, g: 0.071, b: 0.745, a: 1}
  - {r: 0.941, g: 0.071, b: 0.745, a: 1}
  - {r: 0.941, g: 0.071, b: 0.745, a: 1}
  - {r: 0.941, g: 0.071, b: 0.745, a: 1}
  - {r: 0.941, g: 0.071, b: 0.745, a: 1}
  - {r: 0.941, g: 0.071, b: 0.745, a: 1}
  - {r: 0.941, g: 0.071, b: 0.745, a: 1}
  - {r: 0.941, g: 0.071, b: 0.745, a: 1}
  - {r: 0.941, g: 0.071, b: 0.745, a: 1}
  - {r: 0.941, g: 0.071, b: 0.745, a: 1}
  - {r: 0.941, g: 0.071, b: 0.745, a: 1}
  - {r: 0.941, g: 0.071, b: 0.745, a: 1}
  - {r: 0.941, g: 0.071, b: 0.745, a: 1}
  - {r: 0.941, g: 0.071, b: 0.745, a: 1}
  - {r: 0.941, g: 0.071, b: 0.745, a: 1}
  - {r: 0.941, g: 0.071, b: 0.745, a: 1}
  - {r: 0.941, g: 0.071, b: 0.745, a: 1}
  - {r: 0.941, g: 0.071, b: 0.745, a: 1}
  - {r: 0.941, g: 0.071, b: 0.745, a: 1}
  - {r: 0.941, g: 0.071, b: 0.745, a: 1}
  - {r: 0.941, g: 0.071, b: 0.745, a: 1}
  - {r: 0.941, g: 0.071, b: 0.745, a: 1}
  - {r: 0.941, g: 0.071, b: 0.745, a: 1}
  - {r: 0.941, g: 0.071, b: 0.745, a: 1}
  - {r: 0.941, g: 0.071, b: 0.745, a: 1}
  - {r: 0.941, g: 0.071, b: 0.745, a: 1}
  - {r: 0.941, g: 0.071, b: 0.745, a: 1}
  - {r: 0.941, g: 0.071, b: 0.745, a: 1}
  - {r: 0.941, g: 0.071, b: 0.745, a: 1}
  - {r: 0.941, g: 0.071, b: 0.745, a: 1}
  - {r: 0.941, g: 0.071, b: 0.745, a: 1}
  - {r: 0.941, g: 0.071, b: 0.745, a: 1}
  - {r: 0.941, g: 0.071, b: 0.745, a: 1}
  - {r: 0.941, g: 0.071, b: 0.745, a: 1}
  - {r: 0.941, g: 0.071, b: 0.745, a: 1}
  - {r: 0.941, g: 0.071, b: 0.745, a: 1}
  - {r: 0.941, g: 0.071, b: 0.745, a: 1}
  - {r: 0.941, g: 0.071, b: 0.745, a: 1}
  - {r: 0.941, g: 0.071, b: 0.745, a: 1}
  - {r: 0.941, g: 0.071, b: 0.745, a: 1}
  - {r: 0.941, g: 0.071, b: 0.745, a: 1}
  - {r: 0.941, g: 0.071, b: 0.745, a: 1}
  - {r: 0.941, g: 0.071, b: 0.745, a: 1}
  - {r: 0.941, g: 0.071, b: 0.745, a: 1}
  - {r: 0.941, g: 0.071, b: 0.745, a: 1}
  - {r: 0.941, g: 0.071, b: 0.745, a: 1}
  - {r: 0.941, g: 0.071, b: 0.745, a: 1}
  - {r: 0.941, g: 0.071, b: 0.745, a: 1}
  - {r: 0.941, g: 0.071, b: 0.745, a: 1}
  - {r: 0.941, g: 0.071, b: 0.745, a: 1}
  - {r: 0.941, g: 0.071, b: 0.745, a: 1}
  - {r: 0.941, g: 0.071, b: 0.745, a: 1}
  - {r: 0.941, g: 0.071, b: 0.745, a: 1}
  - {r: 0.941, g: 0.071, b: 0.745, a: 1}
  - {r: 0.941, g: 0.071, b: 0.745, a: 1}
  - {r: 0.941, g: 0.071, b: 0.745, a: 1}
  - {r: 0.941, g: 0.071, b: 0.745, a: 1}
  - {r: 0.941, g: 0.071, b: 0.745, a: 1}
  - {r: 0.941, g: 0.071, b: 0.745, a: 1}
  - {r: 0.941, g: 0.071, b: 0.745, a: 1}
  - {r: 0.941, g: 0.071, b: 0.745, a: 1}
  - {r: 0.941, g: 0.071, b: 0.745, a: 1}
  - {r: 0.941, g: 0.071, b: 0.745, a: 1}
  - {r: 0.941, g: 0.071, b: 0.745, a: 1}
  - {r: 0.941, g: 0.071, b: 0.745, a: 1}
  - {r: 0.941, g: 0.071, b: 0.745, a: 1}
  - {r: 0.941, g: 0.071, b: 0.745, a: 1}
  - {r: 0.941, g: 0.071, b: 0.745, a: 1}
  - {r: 0.941, g: 0.071, b: 0.745, a: 1}
  - {r: 0.941, g: 0.071, b: 0.745, a: 1}
  - {r: 0.941, g: 0.071, b: 0.745, a: 1}
  - {r: 0.941, g: 0.071, b: 0.745, a: 1}
  - {r: 0.941, g: 0.071, b: 0.745, a: 1}
  - {r: 0.941, g: 0.071, b: 0.745, a: 1}
  - {r: 0.941, g: 0.071, b: 0.745, a: 1}
  - {r: 0.941, g: 0.071, b: 0.745, a: 1}
  m_UnwrapParameters:
    m_HardAngle: 88
    m_PackMargin: 20
    m_AngleError: 8
    m_AreaError: 15
  m_PreserveMeshAssetOnDestroy: 0
  assetGuid: 
  m_IsSelectable: 1
  m_SelectedFaces: 
  m_SelectedEdges: []
  m_SelectedVertices: 
--- !u!1 &8337239795291376854
GameObject:
  m_ObjectHideFlags: 0
  m_CorrespondingSourceObject: {fileID: 0}
  m_PrefabInstance: {fileID: 0}
  m_PrefabAsset: {fileID: 0}
  serializedVersion: 6
  m_Component:
  - component: {fileID: 7781851736726780699}
  m_Layer: 0
  m_Name: SpawnPt
  m_TagString: Untagged
  m_Icon: {fileID: 0}
  m_NavMeshLayer: 0
  m_StaticEditorFlags: 0
  m_IsActive: 1
--- !u!4 &7781851736726780699
Transform:
  m_ObjectHideFlags: 0
  m_CorrespondingSourceObject: {fileID: 0}
  m_PrefabInstance: {fileID: 0}
  m_PrefabAsset: {fileID: 0}
  m_GameObject: {fileID: 8337239795291376854}
  m_LocalRotation: {x: 0, y: 0, z: 0, w: 1}
  m_LocalPosition: {x: 0, y: 0, z: 0}
  m_LocalScale: {x: 1, y: 1, z: 1}
  m_Children: []
  m_Father: {fileID: 3431583096498794319}
  m_RootOrder: 1
  m_LocalEulerAnglesHint: {x: 0, y: 0, z: 0}
